{
    "owner_live": "chakni",
    "id_live": "qLive - bee5326a",
    "live_type": "QLive",
    "date_live_stream": "2023-03-30 00:03:21.651552",
    "espace_students": {
        "student_22101635": {
            "info_student": {
                "numero_etudiant": "22101635",
                "nom": "Bouchrani",
                "prenom": "Raphael"
            },
            "answer_live": {}
        }
    }
}