{
    "owner_live": "chakni",
    "id_live": "qLive - 9f6db3da",
    "live_type": "QLive",
    "date_live_stream": "2023-03-31 16:27:58.678397",
    "espace_students": {
        "student_22004105": {
            "info_student": {
                "numero_etudiant": "22004105",
                "nom": "Hamza",
                "prenom": "Hamza"
            },
            "answer_live": {
                "answer1": {
                    "id_question_answered": "4b92f4a4",
                    "date": "2023-03-31 16:29:56.462586",
                    "answer": false
                },
                "answer2": {
                    "id_question_answered": "4b92f4a4",
                    "date": "2023-03-31 16:29:58.303398",
                    "answer": false
                }
            }
        },
        "student_24763287": {
            "info_student": {
                "numero_etudiant": "24763287",
                "nom": "jimcosey",
                "prenom": "ghost"
            },
            "answer_live": {
                "answer1": {
                    "id_question_answered": "4b92f4a4",
                    "date": "2023-03-31 16:30:03.344788",
                    "answer": false
                }
            }
        }
    }
}