{
    "owner_live": "chakni",
    "id_live": "qLive - 8f5c0202",
    "live_type": "QLive",
    "date_live_stream": "2023-03-30 20:50:34.882124",
    "espace_students": {
        "student_22101635": {
            "info_student": {
                "numero_etudiant": "22101635",
                "nom": "Bouchrani",
                "prenom": "Raphael"
            },
            "answer_live": {
                "answer1": {
                    "id_question_answered": "4b92f4a4",
                    "date": "2023-03-30 20:51:39.375503",
                    "answer": false
                },
                "answer2": {
                    "id_question_answered": "4b92f4a4",
                    "date": "2023-03-30 20:51:44.438330",
                    "answer": false
                },
                "answer3": {
                    "id_question_answered": "4b92f4a4",
                    "date": "2023-03-30 20:51:49.109539",
                    "answer": false
                }
            }
        }
    }
}