{
    "owner_live": "chakni",
    "id_live": "qLive - d04ae675",
    "live_type": "QLive",
    "date_live_stream": "2023-04-01 16:31:22.714912",
    "espace_students": {
        "student_22101635": {
            "info_student": {
                "numero_etudiant": "22101635",
                "nom": "Bouchrani",
                "prenom": "Raphael"
            },
            "answer_live": {}
        }
    }
}