{
    "owner_live": "chakni",
    "id_live": "qLive - 22e7d166",
    "live_type": "QLive",
    "date_live_stream": "2023-03-30 13:49:10.641036",
    "espace_students": {
        "student_24763287": {
            "info_student": {
                "numero_etudiant": "24763287",
                "nom": "jimcosey",
                "prenom": "ghost"
            },
            "answer_live": {
                "answer1": {
                    "id_question_answered": "4b92f4a4",
                    "date": "2023-03-30 13:50:24.344524",
                    "answer": false
                },
                "answer2": {
                    "id_question_answered": "4b92f4a4",
                    "date": "2023-03-30 13:50:29.512609",
                    "answer": false
                },
                "answer3": {
                    "id_question_answered": "4b92f4a4",
                    "date": "2023-03-30 13:50:43.718674",
                    "answer": false
                },
                "answer4": {
                    "id_question_answered": "4b92f4a4",
                    "date": "2023-03-30 13:50:48.262802",
                    "answer": false
                },
                "answer5": {
                    "id_question_answered": "4b92f4a4",
                    "date": "2023-03-30 13:51:58.628995",
                    "answer": false
                }
            }
        }
    }
}