{
    "owner_live": "chakni",
    "id_live": "qLive - 57b23406",
    "live_type": "QLive",
    "date_live_stream": "2023-03-30 14:05:46.115048",
    "espace_students": {
        "student_24763287": {
            "info_student": {
                "numero_etudiant": "24763287",
                "nom": "jimcosey",
                "prenom": "ghost"
            },
            "answer_live": {
                "answer1": {
                    "id_question_answered": "3bbf1dcc",
                    "date": "2023-03-30 14:07:06.787018",
                    "answer": true
                },
                "answer2": {
                    "id_question_answered": "3bbf1dcc",
                    "date": "2023-03-30 14:07:10.333258",
                    "answer": false
                },
                "answer3": {
                    "id_question_answered": "3bbf1dcc",
                    "date": "2023-03-30 14:07:13.896195",
                    "answer": true
                }
            }
        }
    }
}