{
    "owner_live": "chakni",
    "id_live": "qLive - 6b850f71",
    "live_type": "QLive",
    "date_live_stream": "2023-03-30 10:54:20.079126",
    "espace_students": {
        "student_22101635": {
            "info_student": {
                "numero_etudiant": "22101635",
                "nom": "Bouchrani",
                "prenom": "Raphael"
            },
            "answer_live": {
                "answer1": {
                    "id_question_answered": "4b92f4a4",
                    "date": "2023-03-30 10:55:52.121291",
                    "answer": false
                },
                "answer2": {
                    "id_question_answered": "4b92f4a4",
                    "date": "2023-03-30 10:56:14.899783",
                    "answer": false
                }
            }
        }
    }
}