{
    "owner_live": "chakni",
    "id_live": "qLive - 03f7d1db",
    "live_type": "QLive",
    "date_live_stream": "2023-03-30 14:36:27.682174",
    "espace_students": {
        "student_22101635": {
            "info_student": {
                "numero_etudiant": "22101635",
                "nom": "Bouchrani",
                "prenom": "Raphael"
            },
            "answer_live": {
                "answer1": {
                    "id_question_answered": "3bbf1dcc",
                    "date": "2023-03-30 14:37:16.537982",
                    "answer": true
                },
                "answer2": {
                    "id_question_answered": "3bbf1dcc",
                    "date": "2023-03-30 14:37:21.998622",
                    "answer": false
                },
                "answer3": {
                    "id_question_answered": "3bbf1dcc",
                    "date": "2023-03-30 14:37:25.681602",
                    "answer": true
                },
                "answer4": {
                    "id_question_answered": "3bbf1dcc",
                    "date": "2023-03-30 14:37:43.748714",
                    "answer": true
                },
                "answer5": {
                    "id_question_answered": "3bbf1dcc",
                    "date": "2023-03-30 14:38:04.498576",
                    "answer": false
                },
                "answer6": {
                    "id_question_answered": "3bbf1dcc",
                    "date": "2023-03-30 14:38:12.087659",
                    "answer": false
                },
                "answer7": {
                    "id_question_answered": "3bbf1dcc",
                    "date": "2023-03-30 14:38:16.126044",
                    "answer": false
                }
            }
        }
    }
}