{
    "student1": {
        "nom": "Sar",
        "prenom": "Fred",
        "numero_etudiant": "21765123",
        "mot_de_passe": "21765123",
        "age": "",
        "nationalite": "",
        "parcours_scolaire": "",
        "sexe": "",
        "classe": ""
    },
    "student2": {
        "nom": "Bouchrani",
        "prenom": "Raphael",
        "numero_etudiant": "22101635",
        "mot_de_passe": "22101635",
        "age": "",
        "nationalite": "",
        "parcours_scolaire": "",
        "sexe": "",
        "classe": ""
    },
    "student3": {
        "nom": "Bouchrani",
        "prenom": "Chakni",
        "numero_etudiant": "23104672",
        "mot_de_passe": "23104672",
        "age": "",
        "nationalite": "",
        "parcours_scolaire": "",
        "sexe": "",
        "classe": ""
    },
    "student4": {
        "nom": "jimcosey",
        "prenom": "ghost",
        "numero_etudiant": "24763287",
        "mot_de_passe": "24763287",
        "age": "",
        "nationalite": "",
        "parcours_scolaire": "",
        "sexe": "",
        "classe": ""
    },
    "student5": {
        "nom": "Hamza",
        "prenom": "Hamza",
        "numero_etudiant": "22004105",
        "mot_de_passe": "22004105",
        "age": "222ee",
        "nationalite": "Francais",
        "parcours_scolaire": "L2",
        "sexe": "M",
        "classe": "Groupe B"
    }
}