{
    "owner_live": "raphael",
    "id_live": "qLive - c0d8490a",
    "live_type": "QLive",
    "date_live_stream": "2023-03-24 00:51:33.433667",
    "espace_students": {
        "student_22101635": {
            "info_student": {
                "numero_etudiant": "22101635",
                "nom": "Bouchrani",
                "prenom": "Raphael"
            },
            "answer_live": {
                "answer1": {
                    "id_question_answered": "cb207c80",
                    "date": "2023-03-24 00:52:04.352345",
                    "answer": true
                },
                "answer2": {
                    "id_question_answered": "cb207c80",
                    "date": "2023-03-24 00:52:07.847850",
                    "answer": true
                }
            }
        }
    }
}