{
    "owner_live": "raphael",
    "id_live": "qLive - dc243de6",
    "live_type": "QLive",
    "date_live_stream": "2023-03-16 21:26:37.283987",
    "espace_students": {
        "student_22101635": {
            "info_student": {
                "numero_etudiant": "22101635",
                "nom": "Bouchrani",
                "prenom": "Raphael"
            },
            "answer_live": {}
        },
        "student_21765123": {
            "info_student": {
                "numero_etudiant": "21765123",
                "nom": "Sar",
                "prenom": "Fred"
            },
            "answer_live": {}
        }
    }
}