{
    "owner_live": "raphael",
    "id_live": "qLive - b07de47e",
    "live_type": "QLive",
    "date_live_stream": "2023-03-31 16:27:24.225993",
    "espace_students": {
        "student_22101635": {
            "info_student": {
                "numero_etudiant": "22101635",
                "nom": "Bouchrani",
                "prenom": "Raphael"
            },
            "answer_live": {
                "answer1": {
                    "id_question_answered": "125f6ee1",
                    "date": "2023-03-31 16:27:42.782400",
                    "answer": false
                },
                "answer2": {
                    "id_question_answered": "125f6ee1",
                    "date": "2023-03-31 16:27:44.890802",
                    "answer": true
                },
                "answer3": {
                    "id_question_answered": "125f6ee1",
                    "date": "2023-03-31 16:27:46.828513",
                    "answer": false
                }
            }
        }
    }
}