{
    "owner_live": "raphael",
    "id_live": "qLive - 41075911",
    "live_type": "QLive",
    "date_live_stream": "2023-03-19 00:43:23.713587",
    "espace_students": {
        "student_22101635": {
            "info_student": {
                "numero_etudiant": "22101635",
                "nom": "Bouchrani",
                "prenom": "Raphael"
            },
            "answer_live": {}
        }
    }
}