{
    "owner_live": "raphael",
    "id_live": "qLive - 3f6b9717",
    "live_type": "QLive",
    "date_live_stream": "2023-03-30 15:07:59.071927",
    "espace_students": {
        "student_22004105": {
            "info_student": {
                "numero_etudiant": "22004105",
                "nom": "Hamza",
                "prenom": "Hamza"
            },
            "answer_live": {
                "answer1": {
                    "id_question_answered": "c42944b7",
                    "date": "2023-03-30 15:10:35.906864",
                    "answer": true
                }
            }
        }
    }
}