{
    "owner_live": "raphael",
    "id_live": "qLive - c2a9248e",
    "live_type": "QLive",
    "date_live_stream": "2023-03-14 22:02:13.872492",
    "espace_students": {
        "student_22004105": {
            "info_student": {
                "numero_etudiant": "22004105",
                "nom": "Hamza",
                "prenom": "Hamza"
            },
            "answer_live": {
                "answer0": {
                    "id_question_answered": "2380ed14",
                    "date": "2023-03-14 22:03:10.146085",
                    "answer": false
                }
            }
        }
    }
}