{
    "owner_live": "raphael",
    "id_live": "qLive - 21873e25",
    "live_type": "QLive",
    "date_live_stream": "2023-04-01 21:45:42.900757",
    "espace_students": {
        "student_22004105": {
            "info_student": {
                "numero_etudiant": "22004105",
                "nom": "Hamza",
                "prenom": "Hamza"
            },
            "answer_live": {}
        }
    }
}