{
    "owner_live": "raphael",
    "id_live": "qLive - 5ed25660",
    "live_type": "QLive",
    "date_live_stream": "2023-03-31 15:46:22.624341",
    "espace_students": {
        "student_22101635": {
            "info_student": {
                "numero_etudiant": "22101635",
                "nom": "Bouchrani",
                "prenom": "Raphael"
            },
            "answer_live": {}
        }
    }
}