{
    "owner_live": "raphael",
    "id_live": "qLive - 55ed8304",
    "live_type": "QLive",
    "date_live_stream": "2023-03-31 22:57:36.537067",
    "espace_students": {
        "student_22101635": {
            "info_student": {
                "numero_etudiant": "22101635",
                "nom": "Bouchrani",
                "prenom": "Raphael"
            },
            "answer_live": {
                "answer1": {
                    "id_question_answered": "6112c734",
                    "date": "2023-03-31 23:20:59.411329",
                    "answer": true
                },
                "answer2": {
                    "id_question_answered": "6112c734",
                    "date": "2023-03-31 23:21:13.344790",
                    "answer": true
                }
            }
        }
    }
}