{
    "owner_live": "raphael",
    "id_live": "qLive - e7565149",
    "live_type": "QLive",
    "date_live_stream": "2023-03-29 17:26:12.782284",
    "espace_students": {
        "student_22004105": {
            "info_student": {
                "numero_etudiant": "22004105",
                "nom": "Hamza",
                "prenom": "Hamza"
            },
            "answer_live": {
                "answer1": {
                    "id_question_answered": "f790ea5f",
                    "date": "2023-03-29 17:28:06.762061",
                    "answer": []
                }
            }
        },
        "student_23104672": {
            "info_student": {
                "numero_etudiant": "23104672",
                "nom": "Bouchrani",
                "prenom": "Chakni"
            },
            "answer_live": {
                "answer1": {
                    "id_question_answered": "f790ea5f",
                    "date": "2023-03-29 17:28:21.345550",
                    "answer": []
                }
            }
        }
    }
}