{
    "owner_live": "raphael",
    "id_live": "qLive - bec3201a",
    "live_type": "QLive",
    "date_live_stream": "2023-04-03 14:09:01.006036",
    "espace_students": {
        "student_22101635": {
            "info_student": {
                "numero_etudiant": "22101635",
                "nom": "Bouchrani",
                "prenom": "Raphael"
            },
            "answer_live": {}
        }
    }
}