{
    "owner_live": "raphael",
    "id_live": "qLive - ae781f9a",
    "live_type": "QLive",
    "date_live_stream": "2023-04-02 15:28:38.906969",
    "espace_students": {
        "student_22101635": {
            "info_student": {
                "numero_etudiant": "22101635",
                "nom": "Bouchrani",
                "prenom": "Raphael"
            },
            "answer_live": {
                "answer1": {
                    "id_question_answered": "b6a08c4b",
                    "date": "2023-04-02 15:28:49.706171",
                    "answer": false
                }
            }
        }
    }
}