{
    "owner_live": "raphael",
    "id_live": "qLive - 0d74e080",
    "live_type": "QLive",
    "date_live_stream": "2023-03-24 03:35:58.771371",
    "espace_students": {
        "student_22101635": {
            "info_student": {
                "numero_etudiant": "22101635",
                "nom": "Bouchrani",
                "prenom": "Raphael"
            },
            "answer_live": {
                "answer1": {
                    "id_question_answered": "cb207c80",
                    "date": "2023-03-24 03:36:22.448928",
                    "answer": true
                },
                "answer2": {
                    "id_question_answered": "cb207c80",
                    "date": "2023-03-24 03:36:34.232528",
                    "answer": false
                },
                "answer3": {
                    "id_question_answered": "cb207c80",
                    "date": "2023-03-24 03:36:39.846723",
                    "answer": true
                },
                "answer4": {
                    "id_question_answered": "cb207c80",
                    "date": "2023-03-24 03:36:42.333755",
                    "answer": false
                },
                "answer5": {
                    "id_question_answered": "cb207c80",
                    "date": "2023-03-24 03:36:44.285353",
                    "answer": false
                }
            }
        },
        "student_23104672": {
            "info_student": {
                "numero_etudiant": "23104672",
                "nom": "Bouchrani",
                "prenom": "Chakni"
            },
            "answer_live": {
                "answer1": {
                    "id_question_answered": "cb207c80",
                    "date": "2023-03-24 03:37:21.679923",
                    "answer": false
                },
                "answer2": {
                    "id_question_answered": "cb207c80",
                    "date": "2023-03-24 03:37:26.067335",
                    "answer": false
                },
                "answer3": {
                    "id_question_answered": "cb207c80",
                    "date": "2023-03-24 03:37:28.683383",
                    "answer": true
                },
                "answer4": {
                    "id_question_answered": "cb207c80",
                    "date": "2023-03-24 03:37:47.899050",
                    "answer": true
                },
                "answer5": {
                    "id_question_answered": "cb207c80",
                    "date": "2023-03-24 03:38:12.005353",
                    "answer": false
                },
                "answer6": {
                    "id_question_answered": "cb207c80",
                    "date": "2023-03-24 03:38:14.399470",
                    "answer": true
                },
                "answer7": {
                    "id_question_answered": "cb207c80",
                    "date": "2023-03-24 03:38:20.399337",
                    "answer": true
                },
                "answer8": {
                    "id_question_answered": "cb207c80",
                    "date": "2023-03-24 03:38:29.294764",
                    "answer": false
                },
                "answer9": {
                    "id_question_answered": "cb207c80",
                    "date": "2023-03-24 03:38:37.416242",
                    "answer": true
                },
                "answer10": {
                    "id_question_answered": "cb207c80",
                    "date": "2023-03-24 03:38:51.441330",
                    "answer": true
                }
            }
        }
    }
}