{
    "owner_live": "raphael",
    "id_live": "qLive - 1093c2cf",
    "live_type": "QLive",
    "date_live_stream": "2023-03-24 02:45:16.106662",
    "espace_students": {
        "student_22101635": {
            "info_student": {
                "numero_etudiant": "22101635",
                "nom": "Bouchrani",
                "prenom": "Raphael"
            },
            "answer_live": {
                "answer1": {
                    "id_question_answered": "cb207c80",
                    "date": "2023-03-24 02:45:33.194585",
                    "answer": false
                },
                "answer2": {
                    "id_question_answered": "cb207c80",
                    "date": "2023-03-24 02:45:44.076689",
                    "answer": true
                }
            }
        }
    }
}