{
    "owner_live": "raphael",
    "id_live": "qLive - f0a2bd17",
    "live_type": "QLive",
    "date_live_stream": "2023-03-24 10:57:17.067672",
    "espace_students": {
        "student_22101635": {
            "info_student": {
                "numero_etudiant": "22101635",
                "nom": "Bouchrani",
                "prenom": "Raphael"
            },
            "answer_live": {
                "answer1": {
                    "id_question_answered": "cb207c80",
                    "date": "2023-03-24 10:57:39.961716",
                    "answer": true
                },
                "answer2": {
                    "id_question_answered": "cb207c80",
                    "date": "2023-03-24 10:57:43.973333",
                    "answer": false
                },
                "answer3": {
                    "id_question_answered": "cb207c80",
                    "date": "2023-03-24 10:57:53.023637",
                    "answer": true
                },
                "answer4": {
                    "id_question_answered": "cb207c80",
                    "date": "2023-03-24 10:58:09.575437",
                    "answer": true
                }
            }
        }
    }
}