{
    "owner_live": "raphael",
    "id_live": "qLive - b2358881",
    "live_type": "QLive",
    "date_live_stream": "2023-03-29 16:58:34.443496",
    "espace_students": {
        "student_22004105": {
            "info_student": {
                "numero_etudiant": "22004105",
                "nom": "Hamza",
                "prenom": "Hamza"
            },
            "answer_live": {
                "answer1": {
                    "id_question_answered": "db2527e4",
                    "date": "2023-03-29 16:59:32.155644",
                    "answer": []
                },
                "answer2": {
                    "id_question_answered": "db2527e4",
                    "date": "2023-03-29 17:00:55.299501",
                    "answer": []
                }
            }
        },
        "student_23104672": {
            "info_student": {
                "numero_etudiant": "23104672",
                "nom": "Bouchrani",
                "prenom": "Chakni"
            },
            "answer_live": {
                "answer1": {
                    "id_question_answered": "db2527e4",
                    "date": "2023-03-29 16:59:40.748745",
                    "answer": []
                },
                "answer2": {
                    "id_question_answered": "db2527e4",
                    "date": "2023-03-29 17:01:11.850729",
                    "answer": []
                }
            }
        }
    }
}