{
    "owner_live": "raphael",
    "id_live": "qLive - ba26bde8",
    "live_type": "QLive",
    "date_live_stream": "2023-03-23 14:45:28.575462",
    "espace_students": {
        "student_22004105": {
            "info_student": {
                "numero_etudiant": "22004105",
                "nom": "Hamza",
                "prenom": "Hamza"
            },
            "answer_live": {}
        }
    }
}