{
    "owner_live": "raphael",
    "id_live": "qLive - c77b2df4",
    "live_type": "QLive",
    "date_live_stream": "2023-03-24 03:33:58.456193",
    "espace_students": {
        "student_22101635": {
            "info_student": {
                "numero_etudiant": "22101635",
                "nom": "Bouchrani",
                "prenom": "Raphael"
            },
            "answer_live": {
                "answer1": {
                    "id_question_answered": "cb207c80",
                    "date": "2023-03-24 03:34:13.836952",
                    "answer": false
                },
                "answer2": {
                    "id_question_answered": "cb207c80",
                    "date": "2023-03-24 03:34:17.363520",
                    "answer": true
                },
                "answer3": {
                    "id_question_answered": "cb207c80",
                    "date": "2023-03-24 03:34:19.869092",
                    "answer": false
                }
            }
        }
    }
}