{
    "owner_live": "raphael",
    "id_live": "qLive - 05117bdc",
    "live_type": "QLive",
    "date_live_stream": "2023-03-23 01:37:45.014908",
    "espace_students": {
        "student_22101635": {
            "info_student": {
                "numero_etudiant": "22101635",
                "nom": "Bouchrani",
                "prenom": "Raphael"
            },
            "answer_live": {
                "answer1": {
                    "id_question_answered": "c42944b7",
                    "date": "2023-03-23 01:38:25.907510",
                    "answer": true
                }
            }
        }
    }
}