{
    "owner_live": "raphael",
    "id_live": "qLive - 531bde87",
    "live_type": "QLive",
    "date_live_stream": "2023-03-31 22:43:34.886118",
    "espace_students": {
        "student_22101635": {
            "info_student": {
                "numero_etudiant": "22101635",
                "nom": "Bouchrani",
                "prenom": "Raphael"
            },
            "answer_live": {
                "answer1": {
                    "id_question_answered": "db2527e4",
                    "date": "2023-03-31 22:44:15.279517",
                    "answer": []
                },
                "answer2": {
                    "id_question_answered": "db2527e4",
                    "date": "2023-03-31 22:45:24.433808",
                    "answer": []
                },
                "answer3": {
                    "id_question_answered": "db2527e4",
                    "date": "2023-03-31 22:45:27.083100",
                    "answer": []
                },
                "answer4": {
                    "id_question_answered": "db2527e4",
                    "date": "2023-03-31 22:46:36.189760",
                    "answer": []
                },
                "answer5": {
                    "id_question_answered": "db2527e4",
                    "date": "2023-03-31 22:47:10.169378",
                    "answer": []
                },
                "answer6": {
                    "id_question_answered": "db2527e4",
                    "date": "2023-03-31 22:47:43.006838",
                    "answer": []
                },
                "answer7": {
                    "id_question_answered": "db2527e4",
                    "date": "2023-03-31 22:48:04.605511",
                    "answer": []
                },
                "answer8": {
                    "id_question_answered": "db2527e4",
                    "date": "2023-03-31 22:48:25.484346",
                    "answer": []
                },
                "answer9": {
                    "id_question_answered": "db2527e4",
                    "date": "2023-03-31 22:48:53.436832",
                    "answer": []
                },
                "answer10": {
                    "id_question_answered": "db2527e4",
                    "date": "2023-03-31 22:49:11.536150",
                    "answer": []
                },
                "answer11": {
                    "id_question_answered": "db2527e4",
                    "date": "2023-03-31 22:49:28.516802",
                    "answer": []
                },
                "answer12": {
                    "id_question_answered": "db2527e4",
                    "date": "2023-03-31 22:50:13.919606",
                    "answer": []
                },
                "answer13": {
                    "id_question_answered": "db2527e4",
                    "date": "2023-03-31 22:50:24.249480",
                    "answer": []
                },
                "answer14": {
                    "id_question_answered": "db2527e4",
                    "date": "2023-03-31 22:50:37.635324",
                    "answer": []
                },
                "answer15": {
                    "id_question_answered": "db2527e4",
                    "date": "2023-03-31 22:50:49.151224",
                    "answer": []
                },
                "answer16": {
                    "id_question_answered": "db2527e4",
                    "date": "2023-03-31 22:51:21.250769",
                    "answer": []
                },
                "answer17": {
                    "id_question_answered": "db2527e4",
                    "date": "2023-03-31 22:51:44.682862",
                    "answer": []
                },
                "answer18": {
                    "id_question_answered": "db2527e4",
                    "date": "2023-03-31 22:52:01.984656",
                    "answer": []
                },
                "answer19": {
                    "id_question_answered": "db2527e4",
                    "date": "2023-03-31 22:52:20.194181",
                    "answer": []
                },
                "answer20": {
                    "id_question_answered": "db2527e4",
                    "date": "2023-03-31 22:52:40.449443",
                    "answer": []
                },
                "answer21": {
                    "id_question_answered": "db2527e4",
                    "date": "2023-03-31 22:52:49.588943",
                    "answer": []
                },
                "answer22": {
                    "id_question_answered": "db2527e4",
                    "date": "2023-03-31 22:53:21.291233",
                    "answer": []
                },
                "answer23": {
                    "id_question_answered": "db2527e4",
                    "date": "2023-03-31 22:53:35.506499",
                    "answer": []
                },
                "answer24": {
                    "id_question_answered": "db2527e4",
                    "date": "2023-03-31 22:53:49.409889",
                    "answer": []
                },
                "answer25": {
                    "id_question_answered": "db2527e4",
                    "date": "2023-03-31 22:54:19.635601",
                    "answer": []
                },
                "answer26": {
                    "id_question_answered": "db2527e4",
                    "date": "2023-03-31 22:54:37.940013",
                    "answer": []
                },
                "answer27": {
                    "id_question_answered": "db2527e4",
                    "date": "2023-03-31 22:55:13.873901",
                    "answer": []
                },
                "answer28": {
                    "id_question_answered": "db2527e4",
                    "date": "2023-03-31 22:55:30.894323",
                    "answer": []
                },
                "answer29": {
                    "id_question_answered": "db2527e4",
                    "date": "2023-03-31 22:55:39.887765",
                    "answer": []
                },
                "answer30": {
                    "id_question_answered": "db2527e4",
                    "date": "2023-03-31 22:55:51.574115",
                    "answer": []
                },
                "answer31": {
                    "id_question_answered": "db2527e4",
                    "date": "2023-03-31 22:56:20.156178",
                    "answer": []
                },
                "answer32": {
                    "id_question_answered": "db2527e4",
                    "date": "2023-03-31 22:56:31.375063",
                    "answer": []
                },
                "answer33": {
                    "id_question_answered": "db2527e4",
                    "date": "2023-03-31 22:56:43.792384",
                    "answer": []
                }
            }
        }
    }
}