{
    "owner_live": "raphael",
    "id_live": "qLive - a796fc5e",
    "live_type": "QLive",
    "date_live_stream": "2023-04-02 13:49:12.665989",
    "espace_students": {
        "student_22101635": {
            "info_student": {
                "numero_etudiant": "22101635",
                "nom": "Bouchrani",
                "prenom": "Raphael"
            },
            "answer_live": {
                "answer1": {
                    "id_question_answered": "c42944b7",
                    "date": "2023-04-02 13:49:50.892039",
                    "answer": true
                }
            }
        },
        "student_22004105": {
            "info_student": {
                "numero_etudiant": "22004105",
                "nom": "Hamza",
                "prenom": "Hamza"
            },
            "answer_live": {
                "answer1": {
                    "id_question_answered": "c42944b7",
                    "date": "2023-04-02 13:52:59.672239",
                    "answer": true
                }
            }
        },
        "student_24763287": {
            "info_student": {
                "numero_etudiant": "24763287",
                "nom": "jimcosey",
                "prenom": "ghost"
            },
            "answer_live": {}
        }
    }
}