{
    "owner_live": "raphael",
    "id_live": "qLive - 18fbd5c0",
    "live_type": "QLive",
    "date_live_stream": "2023-04-01 21:47:49.379690",
    "espace_students": {
        "student_22004105": {
            "info_student": {
                "numero_etudiant": "22004105",
                "nom": "Hamza",
                "prenom": "Hamza"
            },
            "answer_live": {
                "answer1": {
                    "id_question_answered": "db2527e4",
                    "date": "2023-04-01 21:48:15.039847",
                    "answer": []
                }
            }
        }
    }
}