{
    "owner_live": "raphael",
    "id_live": "qLive - b2d8c918",
    "live_type": "QLive",
    "date_live_stream": "2023-03-24 02:38:58.450350",
    "espace_students": {
        "student_22101635": {
            "info_student": {
                "numero_etudiant": "22101635",
                "nom": "Bouchrani",
                "prenom": "Raphael"
            },
            "answer_live": {
                "answer1": {
                    "id_question_answered": "cb207c80",
                    "date": "2023-03-24 02:39:20.237362",
                    "answer": true
                },
                "answer2": {
                    "id_question_answered": "cb207c80",
                    "date": "2023-03-24 02:39:32.207253",
                    "answer": false
                }
            }
        }
    }
}