{
    "owner_live": "raphael",
    "id_live": "qLive - 2bf16415",
    "live_type": "QLive",
    "date_live_stream": "2023-04-01 18:24:27.129520",
    "espace_students": {
        "student_22004105": {
            "info_student": {
                "numero_etudiant": "22004105",
                "nom": "Hamza",
                "prenom": "Hamza"
            },
            "answer_live": {}
        }
    }
}