{
    "owner_live": "raphael",
    "id_live": "qLive - 3535ef6d",
    "live_type": "QLive",
    "date_live_stream": "2023-03-20 10:59:34.370099",
    "espace_students": {
        "student_22101635": {
            "info_student": {
                "numero_etudiant": "22101635",
                "nom": "Bouchrani",
                "prenom": "Raphael"
            },
            "answer_live": {
                "answer1": {
                    "id_question_answered": "10f29fb6",
                    "date": "2023-03-20 11:00:17.833850",
                    "answer": true
                }
            }
        }
    }
}