{
    "owner_live": "raphael",
    "id_live": "qLive - 94f015ac",
    "live_type": "QLive",
    "date_live_stream": "2023-03-13 01:01:45.965160",
    "espace_students": {
        "student_22004105": {
            "info_student": {
                "numero_etudiant": "22004105",
                "nom": "Hamza",
                "prenom": "Hamza"
            },
            "answer_live": {
                "answer0": {
                    "id_question_answered": "85c5ab68",
                    "date": "2023-03-13 01:02:28.721248",
                    "answer": false
                }
            }
        }
    }
}