{
    "owner_live": "raphael",
    "id_live": "SeqLive - 5da5956f",
    "live_type": "SeqLive",
    "date_live_stream": "2023-03-20 16:52:56.899706",
    "espace_students": {
        "student_22004105": {
            "info_student": {
                "numero_etudiant": "22004105",
                "nom": "Hamza",
                "prenom": "Hamza"
            },
            "answer_live": {}
        }
    }
}