{
    "owner_live": "raphael",
    "id_live": "SeqLive - 1d52e857",
    "live_type": "SeqLive",
    "date_live_stream": "2023-03-31 15:22:21.760565",
    "espace_students": {
        "student_22101635": {
            "info_student": {
                "numero_etudiant": "22101635",
                "nom": "Bouchrani",
                "prenom": "Raphael"
            },
            "answer_live": {}
        }
    }
}