{
    "owner_live": "raphael",
    "id_live": "SeqLive - ce0e3409",
    "live_type": "SeqLive",
    "date_live_stream": "2023-04-02 16:36:34.900991",
    "espace_students": {
        "student_22101635": {
            "info_student": {
                "numero_etudiant": "22101635",
                "nom": "Bouchrani",
                "prenom": "Raphael"
            },
            "answer_live": {
                "answer1": {
                    "id_question_answered": "c42944b7",
                    "date": "2023-04-02 16:36:47.868564",
                    "answer": true
                },
                "answer2": {
                    "id_question_answered": "4b92a775",
                    "date": "2023-04-02 16:36:54.475521",
                    "answer": false
                }
            }
        }
    }
}