{
    "owner_live": "raphael",
    "id_live": "SeqLive - aba02f96",
    "live_type": "SeqLive",
    "date_live_stream": "2023-03-30 17:14:10.329191",
    "espace_students": {
        "student_22004105": {
            "info_student": {
                "numero_etudiant": "22004105",
                "nom": "Hamza",
                "prenom": "Hamza"
            },
            "answer_live": {
                "answer1": {
                    "id_question_answered": "f790ea5f",
                    "date": "2023-03-30 17:14:43.461329",
                    "answer": []
                }
            }
        }
    }
}