{
    "owner_live": "raphael",
    "id_live": "SeqLive - 2f69e135",
    "live_type": "SeqLive",
    "date_live_stream": "2023-03-20 17:54:54.277699",
    "espace_students": {
        "student_22004105": {
            "info_student": {
                "numero_etudiant": "22004105",
                "nom": "Hamza",
                "prenom": "Hamza"
            },
            "answer_live": {
                "answer52dffffa": {
                    "id_question_answered": "9bcb484c",
                    "date": "2023-03-20 17:55:45.059594",
                    "answer": true
                },
                "answer9bb30138": {
                    "id_question_answered": "9bcb484c",
                    "date": "2023-03-20 17:56:53.175234",
                    "answer": true
                },
                "answerb80ce61a": {
                    "id_question_answered": "9bcb484c",
                    "date": "2023-03-20 17:57:01.165192",
                    "answer": true
                },
                "answer95ec71c9": {
                    "id_question_answered": "fc34d0c6",
                    "date": "2023-03-20 17:57:05.614358",
                    "answer": false
                },
                "answer04c41eb2": {
                    "id_question_answered": "85c5ab68",
                    "date": "2023-03-20 17:57:08.776304",
                    "answer": false
                }
            }
        }
    }
}