{
    "owner_live": "raphael",
    "id_live": "SeqLive - abf89b22",
    "live_type": "SeqLive",
    "date_live_stream": "2023-03-19 22:48:10.279393",
    "espace_students": {
        "student_22101635": {
            "info_student": {
                "numero_etudiant": "22101635",
                "nom": "Bouchrani",
                "prenom": "Raphael"
            },
            "answer_live": {}
        }
    }
}