{
    "owner_live": "raphael",
    "id_live": "SeqLive - 5b5c8710",
    "live_type": "SeqLive",
    "date_live_stream": "2023-03-21 13:16:52.629956",
    "espace_students": {
        "student_21765123": {
            "info_student": {
                "numero_etudiant": "21765123",
                "nom": "Sar",
                "prenom": "Fred"
            },
            "answer_live": {}
        }
    }
}