{
    "owner_live": "raphael",
    "id_live": "SeqLive - 9ad53510",
    "live_type": "SeqLive",
    "date_live_stream": "2023-03-24 11:54:38.623240",
    "espace_students": {
        "student_22101635": {
            "info_student": {
                "numero_etudiant": "22101635",
                "nom": "Bouchrani",
                "prenom": "Raphael"
            },
            "answer_live": {
                "answer1": {
                    "id_question_answered": "cb207c80",
                    "date": "2023-03-24 11:55:23.497814",
                    "answer": true
                },
                "answer2": {
                    "id_question_answered": "cb207c80",
                    "date": "2023-03-24 11:55:26.092859",
                    "answer": false
                },
                "answer3": {
                    "id_question_answered": "cb207c80",
                    "date": "2023-03-24 11:55:28.898481",
                    "answer": false
                },
                "answer4": {
                    "id_question_answered": "fc34d0c6",
                    "date": "2023-03-24 11:55:32.988622",
                    "answer": false
                },
                "answer5": {
                    "id_question_answered": "fc34d0c6",
                    "date": "2023-03-24 11:55:38.666631",
                    "answer": false
                },
                "answer6": {
                    "id_question_answered": "fc34d0c6",
                    "date": "2023-03-24 11:55:41.276558",
                    "answer": false
                },
                "answer7": {
                    "id_question_answered": "fc34d0c6",
                    "date": "2023-03-24 11:55:45.083016",
                    "answer": true
                }
            }
        }
    }
}