{
    "owner_live": "raphael",
    "id_live": "SeqLive - 93a7d241",
    "live_type": "SeqLive",
    "date_live_stream": "2023-04-02 16:31:41.417231",
    "espace_students": {
        "student_22101635": {
            "info_student": {
                "numero_etudiant": "22101635",
                "nom": "Bouchrani",
                "prenom": "Raphael"
            },
            "answer_live": {
                "answer1": {
                    "id_question_answered": "c42944b7",
                    "date": "2023-04-02 16:32:07.014283",
                    "answer": true
                },
                "answer2": {
                    "id_question_answered": "4b92a775",
                    "date": "2023-04-02 16:32:19.626813",
                    "answer": false
                },
                "answer3": {
                    "id_question_answered": "6c64b1d0",
                    "date": "2023-04-02 16:32:44.711194",
                    "answer": false
                }
            }
        }
    }
}