{
    "owner_live": "raphael",
    "id_live": "SeqLive - 5be96f21",
    "live_type": "SeqLive",
    "date_live_stream": "2023-03-20 17:52:47.358414",
    "espace_students": {
        "student_22004105": {
            "info_student": {
                "numero_etudiant": "22004105",
                "nom": "Hamza",
                "prenom": "Hamza"
            },
            "answer_live": {
                "answer969f0f63": {
                    "id_question_answered": "fc34d0c6",
                    "date": "2023-03-20 17:53:23.905180",
                    "answer": true
                },
                "answer617ccb0d": {
                    "id_question_answered": "9bcb484c",
                    "date": "2023-03-20 17:53:27.243714",
                    "answer": false
                }
            }
        }
    }
}